…
## $ Team   <chr> "United States", "United States", "United States", "United Stat…
## $ NOC    <chr> "USA", "USA", "USA", "USA", "USA", "USA", "USA", "USA", "USA", …
## $ Games  <chr> "2004 Summer", "2014 Winter", "1900 Summer", "2008 Summer", "20…
## $ Year   <fct> 2004, 2014, 1900, 2008, 2004, 2000, 1924, 2000, 1932, 1920, 193…
## $ Season <chr> "Summer", "Winter", "Summer", "Summer", "Summer", "Summer", "Wi…
## $ City   <chr> "Athina", "Sochi", "Paris", "Beijing", "Athina", "Sydney", "Cha…
## $ Sport  <chr> "Wrestling", "Figure Skating", "Golf", "Softball", "Taekwondo",…
## $ Event  <chr> "Wrestling Men's Featherweight, Freestyle", "Figure Skating Mix…
## $ Medal  <chr> "Silver", "Bronze", "Gold", "Silver", "Silver", "Gold", "Silver…
View(USA)
To analyze the records of USA athletes, we created a subset of the “athletes_1” dataset using filter function and assigned it to USA.
In the USA dataset, group by the “sport” variable, summarize the total medals of each sport, and arrange in descending order based on number of medals
USA_group <- USA %>% group_by(Sport) %>% count (Sport, sort = TRUE)
USA_group
## # A tibble: 47 × 2
## # Groups:   Sport [47]
##    Sport             n
##    <chr>         <int>
##  1 Athletics      1071
##  2 Swimming       1066
##  3 Basketball      341
##  4 Rowing          333
##  5 Ice Hockey      276
##  6 Shooting        193
##  7 Gymnastics      177
##  8 Diving          140
##  9 Equestrianism   132
## 10 Water Polo      129
## # ℹ 37 more rows
From the above line of codes, we used pipe operator with group by and count function to display the total number of medals won per each sport by the USA athletes. The USA athletes were most successful in Athletics and Swimming, compared to other sports, over the years.
In the USA dataset, group by the “City”, “Year” variable, summarize the total medals won in each city, and arrange in descending order based on number of medals
USA_group_1 <- USA %>% group_by(City, Year) %>% count (City, sort = TRUE)
USA_group_1
## # A tibble: 50 × 3
## # Groups:   City, Year [50]
##    City           Year      n
##    <chr>          <fct> <int>
##  1 Los Angeles    1984    352
##  2 Beijing        2008    309
##  3 Athina         2004    259
##  4 Rio de Janeiro 2016    256
##  5 Atlanta        1996    255
##  6 Sydney         2000    240
##  7 London         2012    238
##  8 Barcelona      1992    222
##  9 Seoul          1988    207
## 10 St. Louis      1904    199
## # ℹ 40 more rows
…
## $ NOC    <chr> "USA", "USA", "USA", "USA", "USA", "USA", "USA", "USA", "USA", …
## $ Games  <chr> "1904 Summer", "2008 Summer", "2012 Summer", "2012 Summer", "20…
## $ Year   <fct> 1904, 2008, 2012, 2012, 2012, 2016, 2016, 2016, 2016, 1992, 199…
## $ Season <chr> "Summer", "Summer", "Summer", "Summer", "Summer", "Summer", "Su…
## $ City   <chr> "St. Louis", "Beijing", "London", "London", "London", "Rio de J…
## $ Sport  <chr> "Swimming", "Swimming", "Swimming", "Swimming", "Swimming", "Sw…
## $ Event  <chr> "Swimming Men's Plunge For Distance", "Swimming Men's 4 x 100 m…
## $ Medal  <chr> "Silver", "Gold", "Gold", "Silver", "Gold", "Bronze", "Bronze",…
View(usa_swim)
Since Swimming is one of the top sports USA athelets won medals, we further drilled down the dataset to observe the records of all the athletes over the years.
In the athletes dataset, calculate the medal tally per country and sort them in descending order
athletes_2 <- athletes_1 %>% group_by(Team) %>% count (Team, sort = TRUE)
colnames(athletes_2) <- c("Country", "Medal_count")
athletes_2
## # A tibble: 498 × 2
## # Groups:   Country [498]
##    Country       Medal_count
##    <chr>               <int>
##  1 United States        5219
##  2 Soviet Union         2451
##  3 Germany              1984
##  4 Great Britain        1673
##  5 France               1550
##  6 Italy                1527
##  7 Sweden               1434
##  8 Australia            1306
##  9 Canada               1243
## 10 Hungary              1127
## # ℹ 488 more rows
…
The above line of codes plotted a column chart displaying the Top 10 medal winning countries using geom_col function from “ggplot2” package. From this chart we observe, most of the nations had on average at least 1000 medal counts with USA claiming over 5000 medals.
Calculate medal tally of countries per year
medal_countries <- athletes_1 %>% group_by(Team, Year) %>% count (Team, sort = TRUE)
medal_countries
## # A tibble: 2,012 × 3
## # Groups:   Team, Year [2,012]
##    Team          Year      n
##    <chr>         <fct> <int>
##  1 Soviet Union  1980    488
##  2 United States 1984    359
##  3 Soviet Union  1988    352
##  4 Soviet Union  1976    336
##  5 United States 2008    309
##  6 East Germany  1980    287
##  7 Unified Team  1992    271
##  8 United States 2004    259
##  9 United States 2016    256
## 10 Soviet Union  1972    255
## # ℹ 2,002 more rows
The above line of codes calculated medal tally of countries per year, displaying the counts in descending order. We observe Soviet Union won 488 medals in the Year 1980, which is the most medals won by a nation in a single year, followed by USA in the second place with 359 medals in the year 1984.
From athletes dataset, group by team and medal, and then summarise the count of medals, and display in descending order.
medal_countries_1 <- athletes_1 %>% group_by(Team, Medal) %>% count (Team, sort = TRUE)
medal_countries_1
## # A tibble: 783 × 3
## # Groups:   Team, Medal [783]
##    Team          Medal      n
##    <chr>         <chr>  <int>
##  1 United States Gold    2474
##  2 United States Silver  1512
##  3 United States Bronze  1233
##  4 Soviet Union  Gold    1058
##  5 Soviet Union  Silver   716
##  6 Germany       Gold     679
##  7 Germany       Bronze   678
##  8 Soviet Union  Bronze   677
##  9 Germany       Silver   627
## 10 Great Britain Silver   582
## # ℹ 773 more rows
…
Plot displaying team “Germany” and medal counts
ggplot(Germany, aes(x = Medal)) + geom_bar(fill = "Blue") +
  labs(title = "Medal counts for Germany")


Plot displaying team “Great Britain” and medal counts
ggplot(GB, aes(x = Medal)) + geom_bar(fill = "Blue") +
  labs(title = "Medal counts for Great Britain")


The above bar plots displayed the Gold, Silver, and Bronze medal won by USA, France, Germany, and Great Britain using the tables that showed all the medal counts per each country.
Show the medal count of Gold by team and display in descending order
athletes_1  %>% group_by(Team, Medal) %>% filter(Medal=="Gold") %>% count (Team, sort = TRUE)
## # A tibble: 242 × 3
## # Groups:   Team, Medal [242]
##    Team          Medal     n
##    <chr>         <chr> <int>
##  1 United States Gold   2474
##  2 Soviet Union  Gold   1058
##  3 Germany       Gold    679
##  4 Italy         Gold    535
##  5 Great Britain Gold    519
##  6 France        Gold    455
##  7 Sweden        Gold    451
##  8 Hungary       Gold    432
##  9 Canada        Gold    422
## 10 East Germany  Gold    369
## # ℹ 232 more rows
The above table displayed the Gold medals won by each country is descending order with USA topping the list followed by Soviet Union, Germany, Italy, and Great Britain in the top 5.
Show the medal count of Silver by team and display in descending order
athletes_1  %>% group_by(Team, Medal) %>% filter(Medal=="Silver") %>% count (Team, sort = TRUE)
## # A tibble: 273 × 3
## # Groups:   Team, Medal [273]
##    Team          Medal      n
##    <chr>         <chr>  <int>
##  1 United States Silver  1512
##  2 Soviet Union  Silver   716
##  3 Germany       Silver   627
##  4 Great Britain Silver   582
##  5 France        Silver   518
##  6 Italy         Silver   508
##  7 Sweden        Silver   476
##  8 Australia     Silver   453
##  9 Canada        Silver   413
## 10 Russia        Silver   351
## # ℹ 263 more rows
The above table displayed the Silver medals won by each country is descending order with USA topping the list followed by Soviet Union, Germany, Great Britain, and France in the top 5.
Show the medal count of Bronze by team and display in descending order
athletes_1  %>% group_by(Team, Medal) %>% filter(Medal=="Bronze") %>% count (Team, sort = TRUE)
## # A tibble: 268 × 3
## # Groups:   Team, Medal [268]
##    Team          Medal      n
##    <chr>         <chr>  <int>
##  1 United States Bronze  1233
##  2 Germany       Bronze   678
##  3 Soviet Union  Bronze   677
##  4 France        Bronze   577
##  5 Great Britain Bronze   572
##  6 Australia     Bronze   511
##  7 Sweden        Bronze   507
##  8 Italy         Bronze   484
##  9 Finland       Bronze   415
## 10 Canada        Bronze   408
## # ℹ 258 more rows
…
